{
  "name": "puppetlabs-stdlib",
  "version": "6.2.0",
  "author": "puppetlabs",
  "summary": "Standard library of resources for Puppet modules.",
  "license": "Apache-2.0",
  "source": "https://github.com/puppetlabs/puppetlabs-stdlib",
  "project_page": "https://github.com/puppetlabs/puppetlabs-stdlib",
  "issues_url": "https://tickets.puppetlabs.com/browse/MODULES",
  "dependencies": [

  ],
  "operatingsystem_support": [
    {
      "operatingsystem": "RedHat",
      "operatingsystemrelease": [
        "5",
        "6",
        "7",
        "8"
      ]
    },
    {
      "operatingsystem": "CentOS",
      "operatingsystemrelease": [
        "5",
        "6",
        "7",
        "8"
      ]
    },
    {
      "operatingsystem": "OracleLinux",
      "operatingsystemrelease": [
        "5",
        "6",
        "7"
      ]
    },
    {
      "operatingsystem": "Scientific",
      "operatingsystemrelease": [
        "6",
        "7"
      ]
    },
    {
      "operatingsystem": "SLES",
      "operatingsystemrelease": [
        "11",
        "12",
        "15"
      ]
    },
    {
      "operatingsystem": "Debian",
      "operatingsystemrelease": [
        "8",
        "9",
        "10"
      ]
    },
    {
      "operatingsystem": "Ubuntu",
      "operatingsystemrelease": [
        "14.04",
        "16.04",
        "18.04"
      ]
    },
    {
      "operatingsystem": "Solaris",
      "operatingsystemrelease": [
        "10",
        "11"
      ]
    },
    {
      "operatingsystem": "Windows",
      "operatingsystemrelease": [
        "2008",
        "2008 R2",
        "2012",
        "2012 R2",
        "2016",
        "2019",
        "7",
        "8.1",
        "10"
      ]
    },
    {
      "operatingsystem": "AIX",
      "operatingsystemrelease": [
        "5.3",
        "6.1",
        "7.1"
      ]
    }
  ],
  "requirements": [
    {
      "name": "puppet",
      "version_requirement": ">= 5.5.10 < 7.0.0"
    }
  ],
  "description": "Standard Library for Puppet Modules",
  "pdk-version": "1.14.1",
  "template-url": "https://github.com/puppetlabs/pdk-templates#master",
  "template-ref": "heads/master-0-g643529a"
}
